<?xml version="1.0" encoding="UTF-8" standalone="no"?>
<svg
   xmlns:dc="http://purl.org/dc/elements/1.1/"
   xmlns:cc="http://creativecommons.org/ns#"
   xmlns:rdf="http://www.w3.org/1999/02/22-rdf-syntax-ns#"
   xmlns:svg="http://www.w3.org/2000/svg"
   xmlns="http://www.w3.org/2000/svg"
   xmlns:sodipodi="http://sodipodi.sourceforge.net/DTD/sodipodi-0.dtd"
   xmlns:inkscape="http://www.inkscape.org/namespaces/inkscape"
   width="15"
   height="15"
   viewBox="0 0 15 15"
   version="1.1"
   id="svg4"
   sodipodi:docname="user-icon.svg"
   inkscape:version="0.92.4 (5da689c313, 2019-01-14)">
  <metadata
     id="metadata10">
    <rdf:RDF>
      <cc:Work
         rdf:about="">
        <dc:format>image/svg+xml</dc:format>
        <dc:type
           rdf:resource="http://purl.org/dc/dcmitype/StillImage" />
        <dc:title></dc:title>
      </cc:Work>
    </rdf:RDF>
  </metadata>
  <defs
     id="defs8" />
  <sodipodi:namedview
     pagecolor="#ffffff"
     bordercolor="#666666"
     borderopacity="1"
     objecttolerance="10"
     gridtolerance="10"
     guidetolerance="10"
     inkscape:pageopacity="0"
     inkscape:pageshadow="2"
     inkscape:window-width="1920"
     inkscape:window-height="1027"
     id="namedview6"
     showgrid="false"
     fit-margin-top="0"
     fit-margin-left="0"
     fit-margin-right="0"
     fit-margin-bottom="0"
     inkscape:zoom="4.2142857"
     inkscape:cx="104.14649"
     inkscape:cy="2.0046464"
     inkscape:window-x="-8"
     inkscape:window-y="-8"
     inkscape:window-maximized="1"
     inkscape:current-layer="svg4" />
  <path
     d="m 15,12.412109 q 0,1.064453 -0.732422,1.826172 Q 13.535156,15 12.503906,15 H 2.496094 Q 1.464844,15 0.732422,14.238281 0,13.476562 0,12.412109 0,11.582031 0.09961,10.844727 0.19922,10.107422 0.468751,9.360352 0.738282,8.613281 1.154298,8.081055 1.570313,7.548828 2.25586,7.211914 2.941406,6.875 3.832031,6.875 5.367187,8.125 7.5,8.125 q 2.132812,0 3.667969,-1.25 0.890625,0 1.576172,0.336914 0.685546,0.336914 1.101562,0.869141 0.416016,0.532226 0.685547,1.279297 0.269531,0.74707 0.369141,1.484375 Q 15,11.582031 15,12.412109 Z M 12,3.75 Q 12,5.302734 10.681641,6.401367 9.363281,7.5 7.5,7.5 5.636719,7.5 4.318359,6.401367 3,5.302734 3,3.75 3,2.197266 4.318359,1.098633 5.636719,0 7.5,0 9.363281,0 10.681641,1.098633 12,2.197266 12,3.75 Z"
     id="path2"
     inkscape:connector-curvature="0"
     style="stroke-width:0.01069771" />
</svg>
